#define close_width 12
#define close_height 12
static unsigned char close_bits[] = {
   0xf8, 0x01, 0xfc, 0x03, 0xfa, 0x05, 0xf7, 0x0e, 0x6f, 0x0f, 0x9f, 0x0f,
   0x9f, 0x0f, 0x6f, 0x0f, 0xf7, 0x0e, 0xfa, 0x05, 0xfc, 0x03, 0xf8, 0x01 };
