/* XPM */
static char * title_2_active_xpm[] = {
"4 25 2 1",
" 	c None",
".	c #035A8A",
"....",
"....",
"....",
"....",
"....",
"....",
"....",
"....",
"....",
"....",
"....",
"....",
"....",
"....",
"....",
"....",
"....",
"....",
"....",
"....",
"....",
"....",
"....",
"....",
"...."};
