/* XPM */
static char * title_5_active_xpm[] = {
"4 25 2 1",
" 	c None",
".	c #212121",
"....",
"....",
"....",
"....",
"....",
"....",
"....",
"....",
"....",
"....",
"....",
"....",
"....",
"....",
"....",
"....",
"....",
"....",
"....",
"....",
"....",
"....",
"....",
"....",
"...."};
